…
#### Set up BRFSS dataset

``` r
# Load and clean BRFSS dataset
brfss_df = brfss_smart2010 %>% 
  janitor::clean_names() %>% 
  filter(topic == "Overall Health") %>% 
  select(year, locationabbr, locationdesc, response, data_value) %>% 
  mutate(response = factor(response,
                           levels = c("Excellent", "Very good", "Good", "Fair", "Poor"))) 

brfss_df
```

    ## # A tibble: 10,625 x 5
    ##     year locationabbr locationdesc          response  data_value
    ##    <int> <chr>        <chr>                 <fct>          <dbl>
    ##  1  2010 AL           AL - Jefferson County Excellent       18.9
    ##  2  2010 AL           AL - Jefferson County Very good       30  
    ##  3  2010 AL           AL - Jefferson County Good            33.1
    ##  4  2010 AL           AL - Jefferson County Fair            12.5
    ##  5  2010 AL           AL - Jefferson County Poor             5.5
    ##  6  2010 AL           AL - Mobile County    Excellent       15.6
    ##  7  2010 AL           AL - Mobile County    Very good       31.3
    ##  8  2010 AL           AL - Mobile County    Good            31.2
    ##  9  2010 AL           AL - Mobile County    Fair            15.5
    ## 10  2010 AL           AL - Mobile County    Poor             6.4
    ## # ... with 10,615 more rows
…
Problem 2
---------

#### Instacart summary

``` r
# Load instacard
instacart_df = instacart

instacart_df
```

    ## # A tibble: 1,384,617 x 15
    ##    order_id product_id add_to_cart_ord~ reordered user_id eval_set
    ##       <int>      <int>            <int>     <int>   <int> <chr>   
    ##  1        1      49302                1         1  112108 train   
    ##  2        1      11109                2         1  112108 train   
    ##  3        1      10246                3         0  112108 train   
    ##  4        1      49683                4         0  112108 train   
    ##  5        1      43633                5         1  112108 train   
    ##  6        1      13176                6         0  112108 train   
    ##  7        1      47209                7         0  112108 train   
    ##  8        1      22035                8         1  112108 train   
    ##  9       36      39612                1         0   79431 train   
    ## 10       36      19660                2         1   79431 train   
    ## # ... with 1,384,607 more rows, and 9 more variables: order_number <int>,
    ## #   order_dow <int>, order_hour_of_day <int>,
    ## #   days_since_prior_order <int>, product_name <chr>, aisle_id <int>,
    ## #   department_id <int>, aisle <chr>, department <chr>
…
#### Aisle information

There are 134 aisles in this dataset. Some examples of these include yogurt, fresh vegetables, and specialty cheeses. The aisle with the most counts of order. Most items are ordered from the fresh vegetable, fresh fruit, and packaged vegetables and fruits aisles.

``` r
# Group by aisles and summarize counts
aisle_count = instacart_df %>% 
  group_by(aisle, department) %>% 
  summarize(n = n()) %>% 
  arrange(desc(n)) 
  
aisle_count
```

    ## # A tibble: 134 x 3
    ## # Groups:   aisle [134]
    ##    aisle                         department      n
    ##    <chr>                         <chr>       <int>
    ##  1 fresh vegetables              produce    150609
    ##  2 fresh fruits                  produce    150473
    ##  3 packaged vegetables fruits    produce     78493
    ##  4 yogurt                        dairy eggs  55240
    ##  5 packaged cheese               dairy eggs  41699
    ##  6 water seltzer sparkling water beverages   36617
    ##  7 milk                          dairy eggs  32644
    ##  8 chips pretzels                snacks      31269
    ##  9 soy lactosefree               dairy eggs  26240
    ## 10 bread                         bakery      23635
    ## # ... with 124 more rows
…
``` r
# Load NY NOAA Summary and clean
ny_noaa_df = ny_noaa %>% 
  separate(date, into = c("year", "month", "day"), sep = "-") %>% 
  mutate(year = as.integer(year),
         month = as.integer(month),
         day = as.integer(day),
         tmax = as.integer(tmax)/10,
         tmin = as.integer(tmin)/10)

ny_noaa_df
```

    ## # A tibble: 2,595,176 x 9
    ##    id           year month   day  prcp  snow  snwd  tmax  tmin
    ##    <chr>       <int> <int> <int> <int> <int> <int> <dbl> <dbl>
    ##  1 US1NYAB0001  2007    11     1    NA    NA    NA    NA    NA
    ##  2 US1NYAB0001  2007    11     2    NA    NA    NA    NA    NA
    ##  3 US1NYAB0001  2007    11     3    NA    NA    NA    NA    NA
    ##  4 US1NYAB0001  2007    11     4    NA    NA    NA    NA    NA
    ##  5 US1NYAB0001  2007    11     5    NA    NA    NA    NA    NA
    ##  6 US1NYAB0001  2007    11     6    NA    NA    NA    NA    NA
    ##  7 US1NYAB0001  2007    11     7    NA    NA    NA    NA    NA
    ##  8 US1NYAB0001  2007    11     8    NA    NA    NA    NA    NA
    ##  9 US1NYAB0001  2007    11     9    NA    NA    NA    NA    NA
    ## 10 US1NYAB0001  2007    11    10    NA    NA    NA    NA    NA
    ## # ... with 2,595,166 more rows
…
